<?xml version="1.0" encoding="utf-8"?>
<svg viewBox="101.3239 176.3097 174.8802 87.8301" width="174.88px" height="87.8301px" preserveAspectRatio="none" xmlns="http://www.w3.org/2000/svg">
  <defs>
    <style>
      .cls-1 {
        fill: #0f56f4;
        stroke-width: 0px;
      }
    </style>
  </defs>
  <g transform="matrix(0, -1.000000953674, 1.000000953674, 0, 144.849048080447, 132.784706196795)" style="transform-origin: 43.915px 87.44px;">
    <path class="cls-1" d="m0,87.44c9.34-9.21,21.62-22.21,36.86-39C57.09,26.2,71.91,10.05,81.31,0h6.52c-14.85,23.8-32.94,54.89-49.6,87.44,15.76,31.06,33.85,62.22,49.6,87.44h-6.52l-27.04-29.47c-19.13-21.14-31.74-34.95-37.83-41.43-6.1-6.49-11.58-12-16.44-16.54Z"/>
  </g>
</svg>