<?xml version="1.0" encoding="UTF-8"?>
<svg xmlns="http://www.w3.org/2000/svg" version="1.1" viewBox="0 0 171.8 171.8">
  <defs>
    <style>
      .SquarePixel {
        fill: #0b0effcc;
        stroke-width: 0px;
      }
    </style>
  </defs>
  <rect class="SquarePixel" x="73.33" y="73.33" width="25.13" height="25.13"/>
</svg>